﻿basura
GULeW;GUW;GUW;GUW;GUW;GUW;GUW;GUW;GUW;GUW;GUW;GUW;GUW;GUW;GUW;GUW;GUW;GUW;GUW;GUW;GUW;GUW;GUW;GUW;GUW;GURW
GLeW;G;G;G;G;G;G;G;G;G;G;G;G;G;G;G;G;G;G;G;G;G;G;G;G;GRW
GLeW;G;G;G;G;G;G;G;G;G;G;G;G;G;G;G;G;G;G;G;G;G;G;G;G;GRW
GLeW;G;G;N;N;N;N;N;N;N;G;G;G;G;G;G;G;G;G;G;G;G;G;G;G;GRW
GLeW;G;G;N;N;N;N;N;N;N;G;G;G;G;G;G;G;G;G;G;G;G;G;G;G;GRW
GLeW;G;G;N;N;N;N;N;N;N;G;G;G;G;G;G;G;G;G;G;G;G;G;G;G;GRW
GLeW;G;G;N;N;N;N;N;N;N;G;G;G;G;G;G;G;G;G;G;G;G;G;G;G;GRW
GLeW;G;G;N;N;NLoW;NLoW;NLoW;NLoW;NLoW;GLoW;GLoW;GLoW;GLoW;GLoW;GLoW;GLoW;GLoW;GLoW;GLoW;G;G;G;G;G;GRW
GLeW;G;G;N;N;SLeRW;SLeRW;NUW;NUW;NUW;NUW;NUW;NURW;RULeW;RUW;RUW;RUW;RUW;RUW;RURW;GLeW;G;G;N;N;NRW
GLeW;G;G;NLoW;NLoW;SLeLeW;SLeLeW;N;N;N;N;N;NRW;RLeW;R;R;R;R;R;RRW;GLeW;G;G;N;N;NRW
GLeW;G;NRW;NULeW;NUW;NUW;NUW;N;N;N;N;N;NRW;RLeW;R;R;R;R;R;RRW;GLeW;G;G;N;N;NRW
GLeW;G;NRW;NLeW;N;N;N;N;N;N;N;N;NRW;RLeW;R;R;R;R;R;RRW;GLeW;G;G;N;N;NRW
GLeW;G;NRW;NLeW;N;N;N;N;N;N;N;N;NRW;RLeW;R;R;R;R;R;RRW;GLeW;G;G;N;N;NRW
GLeW;G;NRW;NLeW;N;N;N;N;N;N;N;N;NRW;RLeW;R;R;R;R;R;RRW;GLoLeW;GLoW;GLoW;N;N;NRW
GLeW;G;NRW;NLeW;N;N;N;N;NLoW;DVO;DVO;NLoW;NLoRW;RLoLeW;RLoW;RLoW;R;R;DVO;RLoRW;NULeW;NUW;NURW;NLeW;N;NRW
GLeW;G;NRW;NLeW;N;N;N;NRW;NULeW;N;N;NUW;NUW;NUW;NUW;NURW;DVO;DVO;NLeW;NUW;N;N;NRW;NLeW;N;NRW
GLeW;G;NRW;NLeW;N;N;N;NRW;NLeW;N;N;N;N;N;N;NRW;RLeW;RRW;NLeW;N;N;N;NRW;NLeW;N;NRW
GLeW;G;NRW;NLeW;N;N;N;NRW;NLeW;N;N;N;N;N;N;NRW;RLeW;RRW;NLoLeW;NLoW;NLoW;NLoW;NLoRW;NLeW;N;NRW
GLeW;G;NRW;NLeW;N;N;N;NRW;NLeW;N;N;N;N;N;N;NRW;SULeW;SURW;RULeW;RUW;RUW;RUW;RURW;NLeW;N;NRW
GLeW;G;NRW;NLeW;N;N;N;NRW;NLeW;N;N;N;N;N;N;NRW;SULeW;SURW;RLoLeW;R;R;R;RRW;NLeW;N;NRW
GLeW;G;NRW;NLeW;N;N;N;NRW;NLeW;N;NLoW;NLoW;NLoW;NLoW;NLoW;NLoRW;RLeW;R;DHO;R;R;R;RRW;NLeW;N;NRW
GLeW;G;NRW;NLoLeW;NLoW;NLoW;NLoW;NLoRW;NLeW;NRW;NULeW;NUW;NUW;NUW;NUW;NURW;RLeW;R;DHO;RLoW;RLoW;RLoW;RLoRW;NLeW;N;NRW
GLeW;G;NRW;RULeW;RUW;RUW;RUW;RURW;SULeW;SURW;NLeW;N;N;N;N;NRW;RLeW;R;RUW;DHO;NUW;NUW;NURW;NLeW;N;NRW
GLeW;G;NRW;RLeW;R;R;R;RRW;SULeW;SURW;NLeW;N;N;N;N;NRW;RLeW;R;DVO;NLoRW;NLeW;N;NRW;NLeW;N;NRW
GLeW;G;NRW;RLeW;R;R;R;RRW;NLeW;N;N;N;N;N;N;DHO;R;RRW;NLeW;NURW;NLeW;N;NRW;NLeW;N;NRW
GLeW;G;NRW;RLeW;R;R;R;RLoRW;NLeW;N;N;N;N;N;N;DHO;RLoW;RRW;NLoLeW;NLoRW;NLoLeW;NLoW;NLoRW;NLeW;N;NRW
GLeW;G;NRW;RLeW;R;R;R;DHO;N;N;N;N;N;N;N;NRW;RULeW;R;RULeW;RUW;RUW;RUW;RURW;NLeW;N;NRW
GLeW;G;NRW;RLeW;R;R;R;DHO;N;N;N;N;N;N;N;NRW;RLeW;DHO;R;R;R;R;RRW;NLeW;N;NRW
GLeW;G;NRW;RLeW;R;R;RRW;NLeW;N;N;N;N;N;N;N;NRW;RLeW;RRW;RLoLeW;RLoW;RLoW;RLoW;RLoRW;NLeW;N;NRW
GLeW;G;NRW;RLoLeW;RLoW;RLoW;RLoRW;NLeW;N;N;N;N;N;N;N;NRW;RLeW;R;DHO;NUW;NUW;NUW;NURW;NLeW;N;NRW
GLeW;G;NRW;NULeW;NUW;NUW;NUW;DVO;DVO;NLoLeW;NLoW;NLoW;NLoW;NLoW;NLoW;NLoRW;RLoLeW;R;DHO;NLoW;N;N;DHO;NLeW;N;NRW
GLeW;G;NRW;NLeW;N;N;N;N;NRW;NULeW;NUW;NUW;NURW;NULeW;NUW;NUW;NUW;DVO;NUW;NURW;NLeW;N;NRW;NLeW;N;NRW
GLeW;G;NRW;NLeW;N;NRW;NLeW;N;NRW;NLeW;N;N;NRW;NLeW;N;N;N;N;N;NRW;NLoLeW;NLoW;NLoRW;NLeW;N;NRW
GLeW;G;NRW;NLoLeW;N;NLoRW;NLeW;N;NRW;NLoLeW;NLoW;N;NLoRW;NLeW;N;N;N;N;N;N;NUW;NUW;NURW;NLeW;N;NRW
GLeW;G;N;NUW;NUW;NURW;NLeW;N;DHO;RUW;RUW;DVO;RURW;NLeW;N;N;N;N;N;N;N;N;NRW;NLeW;N;NRW
GLeW;G;G;G;N;NRW;NLoLeW;N;N;R;R;R;RRW;NLeW;N;N;N;N;N;N;N;N;NRW;NLeW;N;NRW
GLeW;G;G;G;N;N;NUW;DVO;DVO;R;R;R;RRW;NLeW;N;N;N;N;N;N;N;N;NRW;NLeW;N;NRW
GLeW;G;G;G;N;N;N;N;NRW;RLeW;R;R;RRW;NLeW;N;N;N;N;N;N;NLoW;NLoW;NLoRW;NLeW;N;NRW
GLeW;G;G;G;N;N;N;N;NRW;RLoLeW;RLoW;RLoW;RLoRW;NLoLeW;NLoW;NLoW;NLoW;NLoW;NLoW;NLoRW;NULeW;NUW;NUW;N;N;NRW
GLeW;G;G;G;N;N;N;N;N;NUW;NUW;NUW;NUW;NUW;NUW;NUW;NUW;NUW;NUW;NUW;N;N;N;N;N;NRW
GLeW;G;G;G;N;N;N;N;N;N;N;N;N;N;N;N;N;N;N;N;N;N;N;N;N;NRW
GLoLeW;GLoW;GLoW;GLoW;NLoW;NLoW;NLoW;NLoW;NLoW;NLoW;NLoW;NLoW;NLoW;NLoW;NLoW;NLoW;NLoW;NLoW;NLoW;NLoW;NLoW;NLoW;NLoW;NLoW;NLoW;NLoRW
