%YAML 1.1
%TAG !u! tag:unity3d.com,2011:
--- !u!1045 &1
EditorBuildSettings:
  m_ObjectHideFlags: 0
  serializedVersion: 2
  m_Scenes:
  - enabled: 1
    path: Assets/Scenes/Intro.unity
    guid: 6e09d5c5a81336a4d8c756f99427ddb1
  - enabled: 1
    path: Assets/Scenes/Start.unity
    guid: bd2af50f16534c848933bb22df6ac3ae
